# -----------------------------------------------------------------------
# [y] hybris Platform
#
# Copyright (c) 2017 SAP SE or an SAP affiliate company.  All rights reserved.
#
# This software is the confidential and proprietary information of SAP
# ("Confidential Information"). You shall not disclose such Confidential
# Information and shall use it only in accordance with the terms of the
# license agreement you entered into with SAP.
# -----------------------------------------------------------------------

$defaultCatalog=Default
$defaultCatalogVersion=Staged
$catalogVersion=catalogVersion(catalog(id[default='$defaultCatalog']),version[default='$defaultCatalogVersion'])[unique=true,default='$defaultCatalog:$defaultCatalogVersion']
$jasperreports_folder=jasperreports

INSERT_UPDATE Media;code[unique=true];$catalogVersion;mime;realfilename;@media[translator=de.hybris.platform.impex.jalo.media.MediaDataTranslator][forceWrite=true]
;icon_jasperreport_wizard;;image/gif; defaultWizardNode.gif; jar:de.hybris.platform.cockpit.jalo.CockpitManager&/jasperreports/defaultWizardNode.gif

INSERT_UPDATE JasperMedia;code[unique=true];folder(qualifier);icon(code);title[lang=de];title[lang=en];reportDescription[lang=de];reportDescription[lang=en];$catalogVersion;mime;realfilename;@media[translator=de.hybris.platform.impex.jalo.media.MediaDataTranslator][forceWrite=true]
;averageOrderValue;$jasperreports_folder;icon_jasperreport_wizard;Durchschnittlicher Bestellwert;Average order value;Dieses Widget zeigt den durchschnittliche Bestellwert für einen bestimmten Zeitraum;This widget displays the average order value for time range; ;text/xml; averageOrderValue.jrxml; jar:de.hybris.platform.cockpit.jalo.CockpitManager&/jasperreports/sqlserver/averageOrderValue.jrxml
;salesByCountry;$jasperreports_folder;icon_jasperreport_wizard;Umsatz pro Land;Sales by country;Dieses Widget zeigt den Umsatz pro Land;This Widget displays revenue by Country; ;text/xml; salesByCountry.jrxml; jar:de.hybris.platform.cockpit.jalo.CockpitManager&/jasperreports/sqlserver/salesByCountry.jrxml
;salesPerRegion;$jasperreports_folder;icon_jasperreport_wizard;Umsatz pro Region;Sales per region;Dieses Widget zeigt den Umsatz pro Region eines Landes;This widget displays sales for each region of a country; ;text/xml; salesPerRegion.jrxml; jar:de.hybris.platform.cockpit.jalo.CockpitManager&/jasperreports/sqlserver/salesPerRegion.jrxml
;salesPerCategory;$jasperreports_folder;icon_jasperreport_wizard;Umsatz pro Kategorie;Sales per category;Dieses Widget zeigt den Umsatz pro Kategorie für einen bestimmten Zeitraum;This widget shows sales per category for a given time frame; ;text/xml; salesPerCategories.jrxml; jar:de.hybris.platform.cockpit.jalo.CockpitManager&/jasperreports/sqlserver/salesPerCategories.jrxml
;topSellingProducts;$jasperreports_folder;icon_jasperreport_wizard;Meistverkaufte Produkte;Top selling products;Zeigt eine Liste der 5 meistverkauften Produkte im gesamten System;Displays a list of the top 5 selling products across the system; ;text/xml; topSellingProducts.jrxml; jar:de.hybris.platform.cockpit.jalo.CockpitManager&/jasperreports/sqlserver/topSellingProducts.jrxml
;orderVolume;$jasperreports_folder;icon_jasperreport_wizard;Bestellvolumen;Order volume;Zeigt an, wie viele Bestellungen in einem bestimmten Zeitraum getätigt wurden;Displays how many orders have been placed over a given time period; ;text/xml; orderVolume.jrxml; jar:de.hybris.platform.cockpit.jalo.CockpitManager&/jasperreports/sqlserver/orderVolume.jrxml
;salesByHour;$jasperreports_folder;icon_jasperreport_wizard;Umsatz pro Stunde;Sales by hour;Zeigt den Umsatz pro Stunde über einen Zeitraum von 24 Stunden;Displays overall Sales by the hour over a 24 hours period; ;text/xml; salesByHour.jrxml; jar:de.hybris.platform.cockpit.jalo.CockpitManager&/jasperreports/sqlserver/salesByHour.jrxml
;totalSales;$jasperreports_folder;icon_jasperreport_wizard;Gesamtumsatz;Total sales;Zeigt den Gesamtumsatz in einem bestimmten Zeitraum;Displays total sales in a given time period; ;text/xml; totalSales.jrxml; jar:de.hybris.platform.cockpit.jalo.CockpitManager&/jasperreports/sqlserver/totalSales.jrxml